Seasonality
…
Subjectively, I think the optimal number of clusters is 4. It is noiser, but could show more interesting granularity in seasonality.

This clusters the data using 4 clusters:

df_kmeans <- df_seasonality_wide %>% 
  select(-common_name) %>% 
  kmeans(centers = 4)

df_clustered <- augment(df_kmeans, df_seasonality_wide) %>% 
  select(common_name, .cluster)

df_clustered

## # A tibble: 292 x 2
##    common_name                                   .cluster
##    <chr>                                         <fct>   
##  1 Acadian Flycatcher                            2       
##  2 Accipiter sp.                                 3       
##  3 Alder/Willow Flycatcher (Traill's Flycatcher) 3       
##  4 American Avocet                               3       
##  5 American Bittern                              3       
##  6 American Black Duck                           4       
##  7 American Coot                                 4       
##  8 American Crow                                 1       
##  9 American Golden-Plover                        3       
## 10 American Goldfinch                            1       
## # ... with 282 more rows
…
